{
  "upcoming": [
    {
      "date": "2023-05-23",
      "time": "1430-1600utc",
      "title": "GameChanger Live Coding",
      "description": "Exploring Minting Scripts",
      "info": "https://us06web.zoom.us/meeting/register/tZErdOuvrTgtG9KX9xBeqE5gb1wFcLot6tpK"
    },
    {
      "date": "2023-05-23",
      "time": "1800-1930utc",
      "title": "Gimbalabs Playground",
      "description": "Jukebox dApp PoC - built on DEMU",
      "info": "https://us06web.zoom.us/meeting/register/tZYoduuqpjsqGtdzMHXoRVVnJqcQGOtpQRQv"
    },
    {
      "date": "2023-05-24",
      "time": "1430-1600utc",
      "title": "Plutus PBL Live Coding",
      "description": "Breakout Rooms for Plutus PBL 2023",
      "info": "https://us06web.zoom.us/meeting/register/tZErceCqpzMtG9XldfuPnBQEus5MBivl9OZe"
    },
    {
      "date": "2023-05-25",
      "time": "1430-1600utc",
      "title": "Plutus PBL Live Coding",
      "description": "Breakout Rooms for Plutus PBL 2023",
      "info": "https://us06web.zoom.us/meeting/register/tZErceCqpzMtG9XldfuPnBQEus5MBivl9OZe"
    },
    {
      "date": "2023-05-30",
      "time": "1800-1930utc",
      "title": "Gimbalabs Playground",
      "description": "42 Epochs: Adahackers, Testnetcoins, Gamechanger, GPTE",
      "info": "https://us06web.zoom.us/meeting/register/tZYoduuqpjsqGtdzMHXoRVVnJqcQGOtpQRQv"
    }
  ]
}
